{
  "host": "0.0.0.0",
  "port": 9000,
  "model_name_or_path": "/data/richinfo-ai-labs/chatglm3-6b-weights",
  "num_gpus": 1,
  "LightLLM": {
      "model_dir": "weights",
      "tokenizer_mode": "slow",
      "max_total_token_num": 32000,
      "batch_max_tokens": null,
      "eos_id": 2,
      "running_max_req_size": 1000,
      "tp": 1,
      "max_req_input_len": 8196,
      "max_req_total_len": 32000,
      "nccl_port": 38765,
      "mode": [],
      "trust_remote_code": true,
      "disable_log_stats": true,
      "log_stats_interval": 10
  },
  "device": "cuda",
  "device_id": "0"
}